"AFTT_1819_N_CRT_S";"Critérium de Classement";"Messieurs B";29;"M"
"AFTT_1819_N_CRT_S";"Critérium de Classement";"Messieurs C";29;"M"
"AFTT_1819_N_CRT_S";"Critérium de Classement";"Messieurs D";29;"M"
"AFTT_1819_N_CRT_S";"Critérium de Classement";"Messieurs E";29;"M"
"AFTT_1819_N_CRT_S";"Critérium de Classement";"Messieurs NC";29;"M"
"AFTT_1819_N_CRT_S";"Critérium de Classement";"Dames B";30;"F"
"AFTT_1819_N_CRT_S";"Critérium de Classement";"Dames C";30;"F"
"AFTT_1819_N_CRT_S";"Critérium de Classement";"Dames D";30;"F"
"AFTT_1819_N_CRT_S";"Critérium de Classement";"Dames NC";30;"F"
"NAT-1819-FN-002";"A-tornooi Torhout";"Jeugd Benjamin";15;"M"
"NAT-1819-FN-002";"A-tornooi Torhout";"Jeugd jongens Cadetten";9;"M"
"NAT-1819-FN-002";"A-tornooi Torhout";"Jeugd Miniemen";7;"M"
"NAT-1819-FN-002";"A-tornooi Torhout";"Jeugd Preminiemen";5;"M"
"NAT-1819-FN-002";"A-tornooi Torhout";"Jeugd jongens Junioren";11;"M"
"NAT-1819-FN-002";"A-tornooi Torhout";"Jeugd jongens -21";13;"M"
"NAT-1819-FN-002";"A-tornooi Torhout";"Jeugd meisjes Cadetten";10;"F"
"NAT-1819-FN-002";"A-tornooi Torhout";"Jeugd meisjes Junioren";10;"F"
"NAT-1819-FN-002";"A-tornooi Torhout";"Jeugd meisjes -21";14;"F"
"NAT-1819-FN-002";"A-tornooi Torhout";"Veteranen 40+";17;"M"
"NAT-1819-FN-002";"A-tornooi Torhout";"Veteranen 50+";19;"M"
"NAT-1819-FN-002";"A-tornooi Torhout";"Veteranen 60+";21;31;"M"
"NAT-1819-FN-002";"A-tornooi Torhout";"Veteranen 70+";23;33;"M"
"NAT-1819-FN-002";"A-tornooi Torhout";"Veteranen 80+";25;35;"M"
"NAT-1819-FN-002";"A-tornooi Torhout";"Ploegentornooi";29;"M"
"NAT-1819-FN-002";"A-tornooi Torhout";"Dubbelspel";29;"M"
"NAT-1819-FN-002";"A-tornooi Torhout";"Heren C0-C2";29;"M"
"NAT-1819-FN-002";"A-tornooi Torhout";"Heren C4-C6";29;"M"
"NAT-1819-FN-002";"A-tornooi Torhout";"Heren E0-E2";29;"M"
"NAT-1819-FN-002";"A-tornooi Torhout";"Heren E4-E6";29;"M"
"NAT-1819-FN-002";"A-tornooi Torhout";"Dames D";30;"F"
"NAT-1819-FN-002";"A-tornooi Torhout";"Dames NG";30;"F"
"NAT-1819-FN-002";"A-tornooi Torhout";"Recreanten";29;"M"
"NAT-1819-FN-002";"A-tornooi Torhout";"Heren C";29;"M"
"NAT-1819-FN-002";"A-tornooi Torhout";"Heren E";29;"M"
"NAT-1819-FN-002";"A-tornooi Torhout";"Heren NG";29;"M"
"NAT-1819-FN-002";"A-tornooi Torhout";"G-sporters";29;"M"
"NAT-1819-FN-002";"A-tornooi Torhout";"Heren D0-D2";29;"M"
"NAT-1819-FN-002";"A-tornooi Torhout";"Heren D4-D6";29;"M"
"NAT-1819-FN-002";"A-tornooi Torhout";"Dames B";30;"F"
"NAT-1819-FN-002";"A-tornooi Torhout";"Heren B";29;"M"
"NAT-1819-FN-002";"A-tornooi Torhout";"Heren B4-B6";29;"M"
"NAT-1819-FN-002";"A-tornooi Torhout";"Heren D";29;"M"
"NAT-1819-FN-002";"A-tornooi Torhout";"Heren A";29;"M"
"NAT-1819-FN-002";"A-tornooi Torhout";"Dames C";30;"F"
"NAT-1819-FN-002";"A-tornooi Torhout";"Dames A";30;"F"
"NAT-1819-FN-002";"A-tornooi Torhout";"Dames D-NG";30;"F"
"PANT-1819-HL-01";"B-Criterium Gierle";"B OPEN";29;"M"
"PANT-1819-HL-01";"B-Criterium Gierle";"C4-D6";29;"M"
"PANT-1819-HL-01";"B-Criterium Gierle";"E OPEN";29;"M"
"PANT-1819-HL-01";"B-Criterium Gierle";"C OPEN";29;"M"
"PANT-1819-HL-01";"B-Criterium Gierle";"D4-NG";29;"M"
"PANT-1819-HL-01";"B-Criterium Gierle";"B4-C6";29;"M"
"PANT-1819-HL-01";"B-Criterium Gierle";"D OPEN";29;"M"
"PANT-1819-HL-01";"B-Criterium Gierle";"E4-NG";29;"M"
"PANT-1819-HL-01";"B-Criterium Gierle";"NG";29;"M"
"PANT-1819-HL-01";"B-Criterium Gierle";"E0-E2";29;"M"
"PANT-1819-HL-01";"B-Criterium Gierle";"C0-C2";29;"M"
"PANT-1819-HL-01";"B-Criterium Gierle";"D0-D2";29;"M"
"PANT-1819-HL-01";"B-Criterium Gierle";"B0-B2";29;"M"
"PANT-1819-HL-02";"B-Criterium Sokah";"D OPEN";29;"M"
"PANT-1819-HL-02";"B-Criterium Sokah";"JEUGD";11;9;7;5;"M"
"PANT-1819-HL-02";"B-Criterium Sokah";"NG";29;"M"
"PANT-1819-HL-02";"B-Criterium Sokah";"E4-NG";29;"M"
"PANT-1819-HL-02";"B-Criterium Sokah";"E0-E2";29;"M"
"PANT-1819-HL-02";"B-Criterium Sokah";"C0-C2";29;"M"
"PANT-1819-HL-02";"B-Criterium Sokah";"C4-D6";29;"M"
"PANT-1819-HL-02";"B-Criterium Sokah";"E OPEN";29;"M"
"PANT-1819-HL-02";"B-Criterium Sokah";"C OPEN";29;"M"
"PANT-1819-HL-02";"B-Criterium Sokah";"D0-D2";29;"M"
"PANT-1819-HL-02";"B-Criterium Sokah";"D4-E6";29;"M"
"PANT-1819-HL-02";"B-Criterium Sokah";"B2-C6";29;"M"
"PANT-1819-HL-02";"B-Criterium Sokah";"B OPEN";29;"M"
"NAT-1819-FN-003";"A-tornooi Oostende - vrijdag";"Dames NG";30;"F"
"NAT-1819-FN-003";"A-tornooi Oostende - vrijdag";"Heren NG";29;"M"
"NAT-1819-FN-003";"A-tornooi Oostende - vrijdag";"Dames D";30;"F"
"NAT-1819-FN-003";"A-tornooi Oostende - vrijdag";"Heren E";29;"M"
"NAT-1819-FN-003";"A-tornooi Oostende - vrijdag";"Heren D4-D6";29;"M"
"NAT-1819-FN-003";"A-tornooi Oostende - vrijdag";"Dames C";30;"F"
"NAT-1819-FN-003";"A-tornooi Oostende - vrijdag";"Veteranen dames 40+";30;"F"
"NAT-1819-FN-003";"A-tornooi Oostende - vrijdag";"Veteranen dames 50+";30;"F"
"NAT-1819-FN-003";"A-tornooi Oostende - vrijdag";"Veteranen dames 60+";22;"F"
"NAT-1819-FN-003";"A-tornooi Oostende - vrijdag";"Veteranen dames 65+";32;"F"
"NAT-1819-FN-003";"A-tornooi Oostende - vrijdag";"Veteranen dames 70+";24;"F"
"NAT-1819-FN-003";"A-tornooi Oostende - vrijdag";"Veteranen dames 75+";34;"F"
"NAT-1819-FN-003";"A-tornooi Oostende - vrijdag";"Veteranen dames 80+";26;"F"
"NAT-1819-FN-003";"A-tornooi Oostende - vrijdag";"Veteranen dames 85+";36;"F"
"NAT-1819-FN-003";"A-tornooi Oostende - vrijdag";"Veteranen heren 40+";29;"M"
"NAT-1819-FN-003";"A-tornooi Oostende - vrijdag";"Veteranen heren 50+";29;"M"
"NAT-1819-FN-003";"A-tornooi Oostende - vrijdag";"Veteranen heren 60+";29;"M"
"NAT-1819-FN-003";"A-tornooi Oostende - vrijdag";"Veteranen heren 65+";31;"M"
"NAT-1819-FN-003";"A-tornooi Oostende - vrijdag";"Veteranen heren 70+";29;"M"
"NAT-1819-FN-003";"A-tornooi Oostende - vrijdag";"Veteranen heren 75+";33;"M"
"NAT-1819-FN-003";"A-tornooi Oostende - vrijdag";"Veteranen heren 80+";25;"M"
"NAT-1819-FN-003";"A-tornooi Oostende - vrijdag";"Veteranen heren 85+";35;"M"
"NAT-1819-FN-003";"A-tornooi Oostende - vrijdag";"Benjamin meisjes";16;"F"
"NAT-1819-FN-003";"A-tornooi Oostende - vrijdag";"Preminiemen meisjes";6;"F"
"NAT-1819-FN-003";"A-tornooi Oostende - vrijdag";"Miniemen meisjes";30;"F"
"NAT-1819-FN-003";"A-tornooi Oostende - vrijdag";"Cadetten meisjes";30;"F"
"NAT-1819-FN-003";"A-tornooi Oostende - vrijdag";"Junioren meisjes";30;"F"
"NAT-1819-FN-003";"A-tornooi Oostende - vrijdag";"Meisjes -21";30;"F"
"NAT-1819-FN-003";"A-tornooi Oostende - vrijdag";"Benjamin jongens";15;"M"
"NAT-1819-FN-003";"A-tornooi Oostende - vrijdag";"Preminiemen jongens";5;"M"
"NAT-1819-FN-003";"A-tornooi Oostende - vrijdag";"Miniemen jongens";7;"M"
"NAT-1819-FN-003";"A-tornooi Oostende - vrijdag";"Cadetten jongens";29;"M"
"NAT-1819-FN-003";"A-tornooi Oostende - vrijdag";"Junioren jongens";29;"M"
"NAT-1819-FN-003";"A-tornooi Oostende - vrijdag";"Jongens -21";29;"M"
"NAT-1819-FN-003";"A-tornooi Oostende - vrijdag";"Hardbat";29;"M"
"NAT-1819-FN-003";"A-tornooi Oostende - vrijdag";"Dubbel met voorgift";29;"M"
"NAT-1819-FN-004";"A-tornooi Oostende - zaterdag";"Heren B";29;"M"
"NAT-1819-FN-004";"A-tornooi Oostende - zaterdag";"Dames B";30;"F"
"NAT-1819-FN-004";"A-tornooi Oostende - zaterdag";"Dubbel heren A";29;"M"
"NAT-1819-FN-004";"A-tornooi Oostende - zaterdag";"Heren B4-C";29;"M"
"NAT-1819-FN-004";"A-tornooi Oostende - zaterdag";"Dubbel dames A";30;"F"
"NAT-1819-FN-004";"A-tornooi Oostende - zaterdag";"Dames C";30;"F"
"NAT-1819-FN-004";"A-tornooi Oostende - zaterdag";"Dames D";30;"F"
"NAT-1819-FN-004";"A-tornooi Oostende - zaterdag";"Dames NG";30;"F"
"NAT-1819-FN-005";"A-tornooi Oostende - Masters";"Masters";29;"M"
"NAT-1819-FN-006";"A-tornooi Oostende - zondag";"Heren E+NG";29;"M"
"NAT-1819-FN-006";"A-tornooi Oostende - zondag";"Heren C-speciaal";29;"M"
"NAT-1819-FN-006";"A-tornooi Oostende - zondag";"Heren D";29;"M"
"NAT-1819-FN-006";"A-tornooi Oostende - zondag";"Heren D4-NG";29;"M"
"NAT-1819-FN-006";"A-tornooi Oostende - zondag";"Heren C";29;"M"
"NAT-1819-FN-007";"Youth and Senior Cup Oostende";"Youth: preminiemen meisjes";16;6;"F"
"NAT-1819-FN-007";"Youth and Senior Cup Oostende";"Youth: miniemen meisjes";8;"F"
"NAT-1819-FN-007";"Youth and Senior Cup Oostende";"Youth: cadetten meisjes";10;"F"
"NAT-1819-FN-007";"Youth and Senior Cup Oostende";"Youth: junioren meisjes";12;"F"
"NAT-1819-FN-007";"Youth and Senior Cup Oostende";"Youth: meisjes -21";14;"F"
"NAT-1819-FN-007";"Youth and Senior Cup Oostende";"Youth: preminiemen jongens";15;5;"M"
"NAT-1819-FN-007";"Youth and Senior Cup Oostende";"Youth: miniemen jongens";7;"M"
"NAT-1819-FN-007";"Youth and Senior Cup Oostende";"Youth: cadetten jongens";9;"M"
"NAT-1819-FN-007";"Youth and Senior Cup Oostende";"Youth: junioren jongens";11;"M"
"NAT-1819-FN-007";"Youth and Senior Cup Oostende";"Youth: jongens -21";13;"M"
"NAT-1819-FN-007";"Youth and Senior Cup Oostende";"Senior: Heren";1;3;11;"M"
"NAT-1819-FN-007";"Youth and Senior Cup Oostende";"Senior: dames";4;2;"F"
"NAT-1819-FN-007";"Youth and Senior Cup Oostende";"Jeugd jongens";27;"M"
"NAT-1819-FN-007";"Youth and Senior Cup Oostende";"Jeugd meisjes";28;"F"
"NAT-1819-FN-007";"Youth and Senior Cup Oostende";"Seniorreeks heren";29;"M"
"NAT-1819-FN-007";"Youth and Senior Cup Oostende";"Seniorreeks dames";30;"F"
"WVL-1819-FN-001";"Zomercriteria Oostende Beweegt 2018 fase 1";"Fase 1";29;"M"
"WVL-1819-FN-002";"Zomercriteria Oostende Beweegt 2018 fase 2";"Fase 2";29;"M"
"WVL-1819-FN-003";"Zomercriteria Oostende Beweegt 2018 fase 3";"Fase 3";29;"M"
"WVL-1819-FN-004";"Zomercriteria Oostende Beweegt 2018 fase 4";"Fase 4";29;"M"
"AFTT_1819_N_CRT_J";"Critérium des Jeunes";"Préminimes Garçons";15;5;"M"
"AFTT_1819_N_CRT_J";"Critérium des Jeunes";"Préminimes Filles";16;6;"F"
"AFTT_1819_N_CRT_J";"Critérium des Jeunes";"Minimes Garçons";7;"M"
"AFTT_1819_N_CRT_J";"Critérium des Jeunes";"Poussins";15;"M"
"AFTT_1819_N_CRT_J";"Critérium des Jeunes";"Poussines";16;"F"
"AFTT_1819_N_CRT_J";"Critérium des Jeunes";"Minimes Filles";8;"F"
"AFTT_1819_N_CRT_J";"Critérium des Jeunes";"Cadets";9;"M"
"AFTT_1819_N_CRT_J";"Critérium des Jeunes";"Cadettes";10;"F"
"AFTT_1819_N_CRT_J";"Critérium des Jeunes";"Juniors";11;"M"
"AFTT_1819_N_CRT_J";"Critérium des Jeunes";"Juniores";12;"F"
"AFTT_1819_N_CRT_J";"Critérium des Jeunes";"Espoirs -21 ans Garçons";13;"M"
"AFTT_1819_N_CRT_J";"Critérium des Jeunes";"Espoirs -21 ans Filles";14;"F"
"NAT-1819-FN-008";"A-tornooi Wenduine";"Benjamin jongens";15;"M"
"NAT-1819-FN-008";"A-tornooi Wenduine";"Preminiemen jongens";5;"M"
"NAT-1819-FN-008";"A-tornooi Wenduine";"Miniemen jongens";7;"M"
"NAT-1819-FN-008";"A-tornooi Wenduine";"Cadetten jongens";9;"M"
"NAT-1819-FN-008";"A-tornooi Wenduine";"Junioren jongens";11;"M"
"NAT-1819-FN-008";"A-tornooi Wenduine";"Benjamin meisjes";16;"F"
"NAT-1819-FN-008";"A-tornooi Wenduine";"Preminiemen meisjes";6;"F"
"NAT-1819-FN-008";"A-tornooi Wenduine";"Miniemen meisjes";8;"F"
"NAT-1819-FN-008";"A-tornooi Wenduine";"Cadetten meisjes";10;"F"
"NAT-1819-FN-008";"A-tornooi Wenduine";"Junioren meisjes";12;"F"
"NAT-1819-FN-008";"A-tornooi Wenduine";"Jongens -21";13;"M"
"NAT-1819-FN-008";"A-tornooi Wenduine";"Meisjes -21";14;"F"
"NAT-1819-FN-008";"A-tornooi Wenduine";"Veteranen heren";3;"M"
"NAT-1819-FN-008";"A-tornooi Wenduine";"Veteranen dames";4;"F"
"NAT-1819-FN-008";"A-tornooi Wenduine";"Dubbel met voorgift";29;"M"
"NAT-1819-FN-008";"A-tornooi Wenduine";"Heren D4-E2";29;"M"
"NAT-1819-FN-008";"A-tornooi Wenduine";"Heren C-Open";29;"M"
"NAT-1819-FN-008";"A-tornooi Wenduine";"Heren E-Open";29;"M"
"NAT-1819-FN-008";"A-tornooi Wenduine";"Heren D-Open";29;"M"
"NAT-1819-FN-008";"A-tornooi Wenduine";"Heren C0-C2";29;"M"
"NAT-1819-FN-008";"A-tornooi Wenduine";"Heren E4-NG";29;"M"
"NAT-1819-FN-008";"A-tornooi Wenduine";"Heren NG";29;"M"
"NAT-1819-FN-008";"A-tornooi Wenduine";"Heren C4-D2";29;"M"
"NAT-1819-FN-008";"A-tornooi Wenduine";"Heren B";29;"M"
"NAT-1819-FN-008";"A-tornooi Wenduine";"Dames C4-D2";30;"F"
"NAT-1819-FN-008";"A-tornooi Wenduine";"Dames B4-C2";30;"F"
"NAT-1819-FN-008";"A-tornooi Wenduine";"Heren B4-C";29;"M"
"NAT-1819-FN-008";"A-tornooi Wenduine";"Dames D4-NG";30;"F"
"NAT-1819-FN-008";"A-tornooi Wenduine";"Dames D-open";30;"F"
"NAT-1819-FN-008";"A-tornooi Wenduine";"Dames C";30;"F"
"NAT-1819-FN-008";"A-tornooi Wenduine";"Dames B";30;"F"
"NAT-1819-FN-008";"A-tornooi Wenduine";"Dames NG";30;"F"
"VLB-1819-DD-01";"C-criterium Pingkolo";"NG-reeks";29;"M"
"VLB-1819-DD-01";"C-criterium Pingkolo";"E-reeks";29;"M"
"VLB-1819-DD-01";"C-criterium Pingkolo";"Recreanten";29;"M"
"VLB-1819-DD-01";"C-criterium Pingkolo";"Veteranen";3;"M"
"VLB-1819-DD-01";"C-criterium Pingkolo";"Reeks NG-E4";29;"M"
"VLB-1819-DD-01";"C-criterium Pingkolo";"Dubbeltornooi";29;"M"
"VLB-1819-DD-01";"C-criterium Pingkolo";"Reeks D2-C0";29;"M"
"VLB-1819-DD-01";"C-criterium Pingkolo";"Reeks E2-D4";29;"M"
"VLB-1819-DD-01";"C-criterium Pingkolo";"C-reeks";29;"M"
"VLB-1819-DD-01";"C-criterium Pingkolo";"D-reeks";29;"M"
"VLB-1819-DD-02";"B-tornooi (criterium) KTTK Pingouin";"Heren NG";29;"M"
"VLB-1819-DD-02";"B-tornooi (criterium) KTTK Pingouin";"Heren E";29;"M"
"VLB-1819-DD-02";"B-tornooi (criterium) KTTK Pingouin";"Heren D";29;"M"
"VLB-1819-DD-02";"B-tornooi (criterium) KTTK Pingouin";"Heren NG - E4";29;"M"
"VLB-1819-DD-02";"B-tornooi (criterium) KTTK Pingouin";"Dames NG";30;"F"
"VLB-1819-DD-02";"B-tornooi (criterium) KTTK Pingouin";"Dames D";30;"F"
"VLB-1819-DD-02";"B-tornooi (criterium) KTTK Pingouin";"Heren C";29;"M"
"VLB-1819-DD-02";"B-tornooi (criterium) KTTK Pingouin";"Heren E2-D4";29;"M"
"VLB-1819-DD-02";"B-tornooi (criterium) KTTK Pingouin";"Dames C";30;"F"
"VLB-1819-DD-02";"B-tornooi (criterium) KTTK Pingouin";"Heren B";29;"M"
"VLB-1819-DD-02";"B-tornooi (criterium) KTTK Pingouin";"Heren D2-C4";29;"M"
"VLB-1819-DD-02";"B-tornooi (criterium) KTTK Pingouin";"Dames B";30;"F"
"VLB-1819-DD-02";"B-tornooi (criterium) KTTK Pingouin";"Heren C2-B0";29;"M"
"VLB-1819-DD-02";"B-tornooi (criterium) KTTK Pingouin";"Dames D + NG Dames D + NG";2;6;8;10;12;14;16;18;20;22;24;26;32;34;36;;"F"
"WVL-1819-DVR-01";"Criterium TTC Wielsbeke-Leieland";"NG/E6/E4";29;"M"
"WVL-1819-DVR-01";"Criterium TTC Wielsbeke-Leieland";"E2/E0";29;"M"
"WVL-1819-DVR-01";"Criterium TTC Wielsbeke-Leieland";"kadetten/junioren/-21";13;11;9;"M"
"WVL-1819-DVR-01";"Criterium TTC Wielsbeke-Leieland";"NG/E open";29;"M"
"WVL-1819-DVR-01";"Criterium TTC Wielsbeke-Leieland";"B open";29;"M"
"WVL-1819-DVR-01";"Criterium TTC Wielsbeke-Leieland";"Dubbels ";29;"M"
"WVL-1819-DVR-01";"Criterium TTC Wielsbeke-Leieland";"D6/D4";29;"M"
"WVL-1819-DVR-01";"Criterium TTC Wielsbeke-Leieland";"D2/D0";29;"M"
"WVL-1819-DVR-01";"Criterium TTC Wielsbeke-Leieland";"benjamins/preminiemen/miniemen";15;7;5;"M"
"WVL-1819-DVR-01";"Criterium TTC Wielsbeke-Leieland";"C open";29;"M"
"WVL-1819-DVR-01";"Criterium TTC Wielsbeke-Leieland";"niet bij een bond aangesloten spelers - ter plaatse aanmelden";29;"M"
"WVL-1819-DVR-01";"Criterium TTC Wielsbeke-Leieland";"D open";29;"M"
"WVL-1819-DVR-01";"Criterium TTC Wielsbeke-Leieland";"C2/C0";29;"M"
"WVL-1819-DVR-01";"Criterium TTC Wielsbeke-Leieland";"C6/C4";29;"M"
"NAT-1819-FN-009";"Qualification National Youth Criterium 2018-2019";"Miniemen meisjes";8;6;"F"
"NAT-1819-FN-009";"Qualification National Youth Criterium 2018-2019";"Miniemen jongens";7;"M"
"NAT-1819-FN-009";"Qualification National Youth Criterium 2018-2019";"Preminiemen meisjes";16;6;"F"
"NAT-1819-FN-009";"Qualification National Youth Criterium 2018-2019";"Preminiemen jongens";15;5;"M"
"NAT-1819-FN-010";"National Youth Criterium Phase 1";"Jongens";11;9;"M"
"NAT-1819-FN-010";"National Youth Criterium Phase 1";"Meisjes";12;10;"F"
"VTTL-1819-WVDN-001";"Vlaams Jeugdcriterium Fase 1";"Benjamin meisjes";16;"F"
"VTTL-1819-WVDN-001";"Vlaams Jeugdcriterium Fase 1";"Benjamin jongens";15;"M"
"VTTL-1819-WVDN-001";"Vlaams Jeugdcriterium Fase 1";"PM1 meisjes";6;"F"
"VTTL-1819-WVDN-001";"Vlaams Jeugdcriterium Fase 1";"PM1 jongens";5;"M"
"VTTL-1819-WVDN-001";"Vlaams Jeugdcriterium Fase 1";"PM2 meisjes";6;"F"
"VTTL-1819-WVDN-001";"Vlaams Jeugdcriterium Fase 1";"PM2 jongens";5;"M"
"VTTL-1819-WVDN-001";"Vlaams Jeugdcriterium Fase 1";"Min1 meisjes";8;"F"
"VTTL-1819-WVDN-001";"Vlaams Jeugdcriterium Fase 1";"Min1 jongens";7;"M"
"PANT-1819-HL-03";"Provinciaal Criterium Leeftijdsreeksen Jeugd Antwerpen";"17-21 M";14;"F"
"PANT-1819-HL-03";"Provinciaal Criterium Leeftijdsreeksen Jeugd Antwerpen";"Benj M";16;"F"
"PANT-1819-HL-03";"Provinciaal Criterium Leeftijdsreeksen Jeugd Antwerpen";"Cad M";10;"F"
"PANT-1819-HL-03";"Provinciaal Criterium Leeftijdsreeksen Jeugd Antwerpen";"Premin M";6;"F"
"PANT-1819-HL-03";"Provinciaal Criterium Leeftijdsreeksen Jeugd Antwerpen";"17-21 J";1;13;"M"
"PANT-1819-HL-03";"Provinciaal Criterium Leeftijdsreeksen Jeugd Antwerpen";"Jun J";1;11;"M"
"PANT-1819-HL-03";"Provinciaal Criterium Leeftijdsreeksen Jeugd Antwerpen";"MIn J";1;7;"M"
"PANT-1819-HL-03";"Provinciaal Criterium Leeftijdsreeksen Jeugd Antwerpen";"Cadet J";1;9;"M"
"PANT-1819-HL-03";"Provinciaal Criterium Leeftijdsreeksen Jeugd Antwerpen";"PreMin J";1;5;"M"
"PANT-1819-HL-03";"Provinciaal Criterium Leeftijdsreeksen Jeugd Antwerpen";"Min M";8;"F"
"PANT-1819-HL-03";"Provinciaal Criterium Leeftijdsreeksen Jeugd Antwerpen";"Benj J";15;"M"
"PANT-1819-HL-04";"Antwerpen provinciaal criterium seniores";"Heren D";29;"M"
"PANT-1819-HL-04";"Antwerpen provinciaal criterium seniores";"Dames D";30;"F"
"PANT-1819-HL-04";"Antwerpen provinciaal criterium seniores";"Heren E";29;"M"
"PANT-1819-HL-04";"Antwerpen provinciaal criterium seniores";"Heren NG";29;"M"
"PANT-1819-HL-04";"Antwerpen provinciaal criterium seniores";"Dames C";30;"F"
"PANT-1819-HL-04";"Antwerpen provinciaal criterium seniores";"Heren B";29;"M"
"PANT-1819-HL-04";"Antwerpen provinciaal criterium seniores";"Dames B";30;"F"
"PANT-1819-HL-04";"Antwerpen provinciaal criterium seniores";"Heren C";29;"M"
"PANT-1819-HL-04";"Antwerpen provinciaal criterium seniores";"Dames NG";30;"F"
"PLK-1819-MM-01";"Jeugdtornooi Hoeselt";"Meisjes Preminiemen";16;6;"F"
"PLK-1819-MM-01";"Jeugdtornooi Hoeselt";"Meisjes Miniemen";8;"F"
"PLK-1819-MM-01";"Jeugdtornooi Hoeselt";"Meisjes Cadetten";10;"F"
"PLK-1819-MM-01";"Jeugdtornooi Hoeselt";"Meisjes junioren";12;"F"
"PLK-1819-MM-01";"Jeugdtornooi Hoeselt";"Meisjes Jeugd-21";13;"M"
"PLK-1819-MM-01";"Jeugdtornooi Hoeselt";"Jongens Preminiemen";15;5;"M"
"PLK-1819-MM-01";"Jeugdtornooi Hoeselt";"Jongens Miniemen";7;"M"
"PLK-1819-MM-01";"Jeugdtornooi Hoeselt";"Jongens Cadetten";9;"M"
"PLK-1819-MM-01";"Jeugdtornooi Hoeselt";"Jongens Junioren";11;"M"
"PLK-1819-MM-01";"Jeugdtornooi Hoeselt";"Jongens Jeugd-21";13;"M"
"PLK-1819-MM-02";"C-tornooi Hoeselt";"Dames NG";30;"F"
"PLK-1819-MM-02";"C-tornooi Hoeselt";"Dames D4/D6";30;"F"
"PLK-1819-MM-02";"C-tornooi Hoeselt";"Dames D";30;"F"
"PLK-1819-MM-02";"C-tornooi Hoeselt";"Dames C";30;"F"
"PLK-1819-MM-02";"C-tornooi Hoeselt";"Dames C-special";30;"F"
"PLK-1819-MM-02";"C-tornooi Hoeselt";"Heren NG";29;"M"
"PLK-1819-MM-02";"C-tornooi Hoeselt";"Heren E4/E6";29;"M"
"PLK-1819-MM-02";"C-tornooi Hoeselt";"Heren E";29;"M"
"PLK-1819-MM-02";"C-tornooi Hoeselt";"Heren D4/D6";29;"M"
"PLK-1819-MM-02";"C-tornooi Hoeselt";"Heren D";29;"M"
"PLK-1819-MM-02";"C-tornooi Hoeselt";"Heren C";29;"M"
"PLK-1819-MM-02";"C-tornooi Hoeselt";"Heren C-special";29;"M"
"PLK-1819-MM-03";"Top Veteranen";"Veteranen";3;"M"
"PLK-1819-MM-04";"Provinciaal Jeugdcriterium Limburg fase1";"Meisjes Benjamins";16;"F"
"PLK-1819-MM-04";"Provinciaal Jeugdcriterium Limburg fase1";"Meisjes Preminiemen-Miniemen";8;6;"F"
"PLK-1819-MM-04";"Provinciaal Jeugdcriterium Limburg fase1";"Meisjes Cadetten-Junioren-21";14;12;10;"F"
"PLK-1819-MM-04";"Provinciaal Jeugdcriterium Limburg fase1";"Jongens Benjamins";15;"M"
"PLK-1819-MM-04";"Provinciaal Jeugdcriterium Limburg fase1";"Jongens Preminiemen-Miniemen";7;5;"M"
"PLK-1819-MM-04";"Provinciaal Jeugdcriterium Limburg fase1";"Jongens Cadetten-Junioren-21";13;11;9;"M"
"PLK-1819-MM-09";"Provinciaal Jeugdcriterium Limburg fase2";"Meisjes Benjamins";16;"F"
"PLK-1819-MM-09";"Provinciaal Jeugdcriterium Limburg fase2";"Meisjes Preminiemen-Miniemen";8;6;"F"
"PLK-1819-MM-09";"Provinciaal Jeugdcriterium Limburg fase2";"Meisjes Cadetten-Junioren-21";14;12;10;"F"
"PLK-1819-MM-09";"Provinciaal Jeugdcriterium Limburg fase2";"Jongens Benjamins";15;"M"
"PLK-1819-MM-09";"Provinciaal Jeugdcriterium Limburg fase2";"Jongens Preminiemen-Miniemen";7;5;"M"
"PLK-1819-MM-09";"Provinciaal Jeugdcriterium Limburg fase2";"Jongens Cadetten-Junioren-21";13;11;9;"M"
"PLK-1819-MM-17";"Provinciaal Jeugdcriterium Limburg fase3";"Meisjes Benjamins";16;"F"
"PLK-1819-MM-17";"Provinciaal Jeugdcriterium Limburg fase3";"Meisjes Preminiemen-Miniemen";8;6;"F"
"PLK-1819-MM-17";"Provinciaal Jeugdcriterium Limburg fase3";"Meisjes Cadetten-Junioren-21";14;12;10;"F"
"PLK-1819-MM-17";"Provinciaal Jeugdcriterium Limburg fase3";"Jongens Benjamins";15;"M"
"PLK-1819-MM-17";"Provinciaal Jeugdcriterium Limburg fase3";"Jongens Preminiemen-Miniemen";7;5;"M"
"PLK-1819-MM-17";"Provinciaal Jeugdcriterium Limburg fase3";"Jongens Cadetten-Junioren-21";13;11;9;"M"
"PLK-1819-MM-05";"PRC Enkeltornooi";"E6/NG";29;"M"
"PLK-1819-MM-05";"PRC Enkeltornooi";"E2/E4";29;"M"
"PLK-1819-MM-05";"PRC Enkeltornooi";"D6/E0";29;"M"
"PLK-1819-MM-15";"PRC Dubbeltornooi";"E4 - NG";29;"M"
"PLK-1819-MM-15";"PRC Dubbeltornooi";"D6 - E2";29;"M"
"PLK-1819-MM-11";"LK Dubbelcriterium";"Dames";29;"M"
"PLK-1819-MM-11";"LK Dubbelcriterium";"Heren";29;"M"
"PLK-1819-MM-11";"LK Dubbelcriterium";"Gemengd";29;"F"
"PLK-1819-MM-06";"Jeugd Duo Competitite 1";"Benjamins";15;"M"
"PLK-1819-MM-06";"Jeugd Duo Competitite 1";"Preminiemen";15;5;"M"
"PLK-1819-MM-06";"Jeugd Duo Competitite 1";"Miniemen";15;7;5;"M"
"PLK-1819-MM-18";"Jeugd Duo Competitite 2";"Benjamins";15;"M"
"PLK-1819-MM-18";"Jeugd Duo Competitite 2";"Preminiemen";15;5;"M"
"PLK-1819-MM-18";"Jeugd Duo Competitite 2";"Miniemen";15;7;5;"M"
"PLK-1819-MM-07";"Top Jeugd";"Meisjes Preminiemen";16;6;"F"
"PLK-1819-MM-07";"Top Jeugd";"Meisjes Miniemen";8;"F"
"PLK-1819-MM-07";"Top Jeugd";"Meisjes Cadetten";10;"F"
"PLK-1819-MM-07";"Top Jeugd";"Meisjes Junioren";12;"F"
"PLK-1819-MM-07";"Top Jeugd";"Meisjes Jeugd-21";14;"F"
"PLK-1819-MM-07";"Top Jeugd";"Jongens Preminiemen";15;5;"M"
"PLK-1819-MM-07";"Top Jeugd";"Jongens Miniemen";7;"M"
"PLK-1819-MM-07";"Top Jeugd";"Jongens Cadetten";9;"M"
"PLK-1819-MM-07";"Top Jeugd";"Jongens Junioren";11;"M"
"PLK-1819-MM-07";"Top Jeugd";"Jongens Jeugd-21";13;"M"
"PLK-1819-MM-08";"Top Klassementen";"Dames NG";30;"F"
"PLK-1819-MM-08";"Top Klassementen";"Dames D";30;"F"
"PLK-1819-MM-08";"Top Klassementen";"Dames C";30;"F"
"PLK-1819-MM-08";"Top Klassementen";"Dames B";30;"F"
"PLK-1819-MM-08";"Top Klassementen";"Heren NG";29;"M"
"PLK-1819-MM-08";"Top Klassementen";"Heren E";29;"M"
"PLK-1819-MM-08";"Top Klassementen";"Heren D";29;"M"
"PLK-1819-MM-08";"Top Klassementen";"Heren C";29;"M"
"PLK-1819-MM-08";"Top Klassementen";"Heren B";29;"M"
"PLK-1819-MM-16";"De Jeugdbeker Menno Bollen";"Misijes Preminiemen";16;6;"F"
"PLK-1819-MM-16";"De Jeugdbeker Menno Bollen";"Meisjes Miniemen";8;"F"
"PLK-1819-MM-16";"De Jeugdbeker Menno Bollen";"Meisjes Cadetten";10;"F"
"PLK-1819-MM-16";"De Jeugdbeker Menno Bollen";"Meisjes Junioren";12;"F"
"PLK-1819-MM-16";"De Jeugdbeker Menno Bollen";"Jongens Preminiemen";15;5;"M"
"PLK-1819-MM-16";"De Jeugdbeker Menno Bollen";"Jongens Miniemen";15;5;"M"
"PLK-1819-MM-16";"De Jeugdbeker Menno Bollen";"Jongens Cadetten";15;5;"M"
"PLK-1819-MM-16";"De Jeugdbeker Menno Bollen";"Jongens Junioren";11;"M"
"PLK-1819-MM-12";"Provinciaal Kamp LK Jeugd";"Meisjes Preminiemen";16;6;"F"
"PLK-1819-MM-12";"Provinciaal Kamp LK Jeugd";"Meisjes Miniemen";8;"F"
"PLK-1819-MM-12";"Provinciaal Kamp LK Jeugd";"Meisjes Cadetten";10;"F"
"PLK-1819-MM-12";"Provinciaal Kamp LK Jeugd";"Meisjes Junioren";12;"F"
"PLK-1819-MM-12";"Provinciaal Kamp LK Jeugd";"Meisjes Jeugd-21";14;"F"
"PLK-1819-MM-12";"Provinciaal Kamp LK Jeugd";"Jongens Preminiemen";15;5;"M"
"PLK-1819-MM-12";"Provinciaal Kamp LK Jeugd";"Jongens Miniemen";7;"M"
"PLK-1819-MM-12";"Provinciaal Kamp LK Jeugd";"Jongens Cadetten";9;"M"
"PLK-1819-MM-12";"Provinciaal Kamp LK Jeugd";"Jongens Junioren";11;"M"
"PLK-1819-MM-12";"Provinciaal Kamp LK Jeugd";"Jongens Jeugd-21";13;"M"
"PLK-1819-MM-12";"Provinciaal Kamp LK Jeugd";"Meisjes Preminiemen Dubbel";16;6;"F"
"PLK-1819-MM-12";"Provinciaal Kamp LK Jeugd";"Meisjes Miniemen Dubbel";8;"F"
"PLK-1819-MM-12";"Provinciaal Kamp LK Jeugd";"Meisjes Cadetten Dubbel";10;"F"
"PLK-1819-MM-12";"Provinciaal Kamp LK Jeugd";"Meisjes Junioren Dubbel";12;"F"
"PLK-1819-MM-12";"Provinciaal Kamp LK Jeugd";"Meisjes Jeugd-21 Dubbel";14;"F"
"PLK-1819-MM-12";"Provinciaal Kamp LK Jeugd";"Jongens Preminiemen Dubbel";15;5;"M"
"PLK-1819-MM-12";"Provinciaal Kamp LK Jeugd";"Jongens Miniemen Dubbel";7;"M"
"PLK-1819-MM-12";"Provinciaal Kamp LK Jeugd";"Jongens Cadetten Dubbel";9;"M"
"PLK-1819-MM-12";"Provinciaal Kamp LK Jeugd";"Jongens Jeugd-21";13;"M"
"PLK-1819-MM-12";"Provinciaal Kamp LK Jeugd";"Jongens Junioren Dubbel";11;"M"
"PLK-1819-MM-12";"Provinciaal Kamp LK Jeugd";"Preminiemen Gemengd";15;5;"F"
"PLK-1819-MM-12";"Provinciaal Kamp LK Jeugd";"Miniemen Gemengd";7;"F"
"PLK-1819-MM-12";"Provinciaal Kamp LK Jeugd";"Cadetten Gemengd";9;"F"
"PLK-1819-MM-12";"Provinciaal Kamp LK Jeugd";"Junioren Gemengd";11;"F"
"PLK-1819-MM-12";"Provinciaal Kamp LK Jeugd";"Jeugd-21 Gemengd";13;"F"
"PLK-1819-MM-13";"Provinciaal Kamp LK Klassementen";"Dames NG";30;"F"
"PLK-1819-MM-13";"Provinciaal Kamp LK Klassementen";"Dames D";30;"F"
"PLK-1819-MM-13";"Provinciaal Kamp LK Klassementen";"Dames C";30;"F"
"PLK-1819-MM-13";"Provinciaal Kamp LK Klassementen";"Dames B";30;"F"
"PLK-1819-MM-13";"Provinciaal Kamp LK Klassementen";"Heren NG";29;"M"
"PLK-1819-MM-13";"Provinciaal Kamp LK Klassementen";"Heren E";29;"M"
"PLK-1819-MM-13";"Provinciaal Kamp LK Klassementen";"Heren D";29;"M"
"PLK-1819-MM-13";"Provinciaal Kamp LK Klassementen";"Heren C";29;"M"
"PLK-1819-MM-13";"Provinciaal Kamp LK Klassementen";"Heren B";29;"M"
"PLK-1819-MM-13";"Provinciaal Kamp LK Klassementen";"Dubbel Dames NG";30;"F"
"PLK-1819-MM-13";"Provinciaal Kamp LK Klassementen";"Dubbel Dames D";30;"F"
"PLK-1819-MM-13";"Provinciaal Kamp LK Klassementen";"Dubbel Dames C";30;"F"
"PLK-1819-MM-13";"Provinciaal Kamp LK Klassementen";"Dubbel Dames B";30;"F"
"PLK-1819-MM-13";"Provinciaal Kamp LK Klassementen";"Dubbel Heren NG";29;"M"
"PLK-1819-MM-13";"Provinciaal Kamp LK Klassementen";"Dubbel Heren E";29;"M"
"PLK-1819-MM-13";"Provinciaal Kamp LK Klassementen";"Dubbel Heren D";29;"M"
"PLK-1819-MM-13";"Provinciaal Kamp LK Klassementen";"Dubbel Heren C";29;"M"
"PLK-1819-MM-13";"Provinciaal Kamp LK Klassementen";"Dubbel Heren B";29;"M"
"PLK-1819-MM-13";"Provinciaal Kamp LK Klassementen";"Gemengd NG";29;"F"
"PLK-1819-MM-13";"Provinciaal Kamp LK Klassementen";"Gemengd D";29;"F"
"PLK-1819-MM-13";"Provinciaal Kamp LK Klassementen";"Gemengd C";29;"F"
"PLK-1819-MM-13";"Provinciaal Kamp LK Klassementen";"Gemengd B";29;"F"
"PLK-1819-MM-14";"Provinciaal Kamp LK Veteranen";"Dames 40";18;"F"
"PLK-1819-MM-14";"Provinciaal Kamp LK Veteranen";"Dames 50";20;"F"
"PLK-1819-MM-14";"Provinciaal Kamp LK Veteranen";"Heren 50";19;"M"
"PLK-1819-MM-14";"Provinciaal Kamp LK Veteranen";"Dames 60 65 70 75 80 ...";22;24;26;32;34;36;"F"
"PLK-1819-MM-14";"Provinciaal Kamp LK Veteranen";"Heren 40";17;"M"
"PLK-1819-MM-14";"Provinciaal Kamp LK Veteranen";"Heren 60";21;"M"
"PLK-1819-MM-14";"Provinciaal Kamp LK Veteranen";"Heren 65 70 75 80 85 ...";23;25;31;33;35;"M"
"PLK-1819-MM-14";"Provinciaal Kamp LK Veteranen";"Dubbel Dames 40 50 60 65 70 ...";18;20;22;24;26;32;34;36;"F"
"PLK-1819-MM-14";"Provinciaal Kamp LK Veteranen";"Dubbel Heren 40";17;"M"
"PLK-1819-MM-14";"Provinciaal Kamp LK Veteranen";"Dubbel Heren 50";19;"M"
"PLK-1819-MM-14";"Provinciaal Kamp LK Veteranen";"Dubbel Heren 60 65 70 75 ...";21;23;25;31;33;35;"M"
"PLK-1819-MM-14";"Provinciaal Kamp LK Veteranen";"Gemengd Veteranen";3;"F"
"WVL-1819-LD-01";"Tornooi TTC Easypay";"D Open";29;"M"
"WVL-1819-LD-01";"Tornooi TTC Easypay";"D0-D2";29;"M"
"WVL-1819-LD-01";"Tornooi TTC Easypay";"E Open";29;"M"
"WVL-1819-LD-01";"Tornooi TTC Easypay";"E0-E2";29;"M"
"WVL-1819-LD-01";"Tornooi TTC Easypay";"E4-E6-NG";29;"M"
"WVL-1819-LD-01";"Tornooi TTC Easypay";"NG";29;"M"
"WVL-1819-LD-01";"Tornooi TTC Easypay";"B4-B6";29;"M"
"WVL-1819-LD-01";"Tornooi TTC Easypay";"C Open";29;"M"
"WVL-1819-LD-01";"Tornooi TTC Easypay";"C0-C2";29;"M"
"WVL-1819-LD-01";"Tornooi TTC Easypay";"C4-C6";29;"M"
"WVL-1819-LD-01";"Tornooi TTC Easypay";"B Open";29;"M"
"WVL-1819-LD-01";"Tornooi TTC Easypay";"Dubbels";29;"M"
"WVL-1819-LD-01";"Tornooi TTC Easypay";"B0-B2";29;"M"
"WVL-1819-LD-01";"Tornooi TTC Easypay";"D4-D6";29;"M"
"HAI-1819-04";"Tournoi série A - Villette Charleroi";"D - Messieurs";29;"M"
"HAI-1819-04";"Tournoi série A - Villette Charleroi";"NC - Messieurs";29;"M"
"HAI-1819-04";"Tournoi série A - Villette Charleroi";"E - Messieurs";29;"M"
"HAI-1819-04";"Tournoi série A - Villette Charleroi";"C - Messieurs";29;"M"
"HAI-1819-04";"Tournoi série A - Villette Charleroi";"B - Messieurs";29;"M"
"HAI-1819-04";"Tournoi série A - Villette Charleroi";"A - Messieurs";29;"M"
"HAI-1819-04";"Tournoi série A - Villette Charleroi";"Vétérans";3;"M"
"HAI-1819-04";"Tournoi série A - Villette Charleroi";"NC - Dames";30;"F"
"HAI-1819-04";"Tournoi série A - Villette Charleroi";"D - Dames";30;"F"
"HAI-1819-04";"Tournoi série A - Villette Charleroi";"C - Dames";30;"F"
"HAI-1819-04";"Tournoi série A - Villette Charleroi";"B - Dames";30;"F"
"HAI-1819-04";"Tournoi série A - Villette Charleroi";"A - Dames";30;"F"
"HAI-1819-04";"Tournoi série A - Villette Charleroi";"Ainées - Dames";4;"F"
"HAI-1819-04";"Tournoi série A - Villette Charleroi";"Séries d'âge - Messieurs";27;"M"
"HAI-1819-04";"Tournoi série A - Villette Charleroi";"Séries d'âge - Dames";28;"F"
"HAI-1819-41";"Championnat du Hainaut Jeunes";"Poussins";15;"M"
"HAI-1819-16";"2e Tournoi série B de la Palette Saint-Piat";"NC Mess.";29;"M"
"HAI-1819-16";"2e Tournoi série B de la Palette Saint-Piat";"D Mess.";29;"M"
"HAI-1819-16";"2e Tournoi série B de la Palette Saint-Piat";"E Mess.";29;"M"
"HAI-1819-16";"2e Tournoi série B de la Palette Saint-Piat";"C Mess.";29;"M"
"HAI-1819-16";"2e Tournoi série B de la Palette Saint-Piat";"B Spéciale Mess.";29;"M"
"HAI-1819-16";"2e Tournoi série B de la Palette Saint-Piat";"B Mess.";29;"M"
"HAI-1819-16";"2e Tournoi série B de la Palette Saint-Piat";"NC Dames";30;"F"
"HAI-1819-16";"2e Tournoi série B de la Palette Saint-Piat";"D Dames";30;"F"
"HAI-1819-16";"2e Tournoi série B de la Palette Saint-Piat";"C Dames";30;"F"
"HAI-1819-16";"2e Tournoi série B de la Palette Saint-Piat";"B Dames";30;"F"
"HAI-1819-10";"Tournoi Série B - Dour Palette";"Messieurs E";29;"M"
"HAI-1819-10";"Tournoi Série B - Dour Palette";"Dames NC";30;"F"
"HAI-1819-10";"Tournoi Série B - Dour Palette";"Dames D";30;"F"
"HAI-1819-10";"Tournoi Série B - Dour Palette";"Messieurs NC";29;"M"
"HAI-1819-10";"Tournoi Série B - Dour Palette";"Messieurs D";29;"M"
"HAI-1819-10";"Tournoi Série B - Dour Palette";"Dames C";30;"F"
"HAI-1819-10";"Tournoi Série B - Dour Palette";"Messieurs C";29;"M"
"HAI-1819-10";"Tournoi Série B - Dour Palette";"Messieurs B Spécial ";29;"M"
"HAI-1819-10";"Tournoi Série B - Dour Palette";"Dames B Spécial";30;"F"
"HAI-1819-10";"Tournoi Série B - Dour Palette";"Messieurs B";29;"M"
"HAI-1819-10";"Tournoi Série B - Dour Palette";"Dames B";30;"F"
"HAI-1819-10";"Tournoi Série B - Dour Palette";"Vétérans ";3;"M"
"HAI-1819-08";"2ème tournoi vétérans - Palette obourgeoise ";"Vétérans & ainées - NC/E4";3;"M"
"HAI-1819-08";"2ème tournoi vétérans - Palette obourgeoise ";"Vétérans & ainées - E2/D6";3;"M"
"HAI-1819-08";"2ème tournoi vétérans - Palette obourgeoise ";"Vétérans & ainées - D4/D0";3;"M"
"HAI-1819-08";"2ème tournoi vétérans - Palette obourgeoise ";"Vétérans & ainées - C6/C2";3;"M"
"HAI-1819-08";"2ème tournoi vétérans - Palette obourgeoise ";"Vétérans & ainées - C0/B";3;"M"
"HAI-1819-08";"2ème tournoi vétérans - Palette obourgeoise ";"Repas - 10€";29;"M"
"HAI-1819-05";"Tournoi Série B - C.P. Montois";"Messieurs E2/E0";29;"M"
"HAI-1819-05";"Tournoi Série B - C.P. Montois";"Dames NC";30;"F"
"HAI-1819-05";"Tournoi Série B - C.P. Montois";"Messieurs NC";29;"M"
"HAI-1819-05";"Tournoi Série B - C.P. Montois";"Messieurs D2/D0";29;"M"
"HAI-1819-05";"Tournoi Série B - C.P. Montois";"Dames D";30;"F"
"HAI-1819-05";"Tournoi Série B - C.P. Montois";"Messieurs E6/E4";29;"M"
"HAI-1819-05";"Tournoi Série B - C.P. Montois";"Messieurs D6/D4";29;"M"
"HAI-1819-05";"Tournoi Série B - C.P. Montois";"Dames C";30;"F"
"HAI-1819-05";"Tournoi Série B - C.P. Montois";"Messieurs B spécial";29;"M"
"HAI-1819-05";"Tournoi Série B - C.P. Montois";"Messieurs C";29;"M"
"HAI-1819-05";"Tournoi Série B - C.P. Montois";"Dames B spécial";30;"F"
"HAI-1819-05";"Tournoi Série B - C.P. Montois";"Dames B";30;"F"
"HAI-1819-05";"Tournoi Série B - C.P. Montois";"Messieurs B";29;"M"
"LIE-1819-01";"2ème tournoi - T.T. Top Spin Retinne";"Messieurs NC";29;"M"
"LIE-1819-01";"2ème tournoi - T.T. Top Spin Retinne";"Messieurs D6/D4";29;"M"
"LIE-1819-01";"2ème tournoi - T.T. Top Spin Retinne";"Dames NC";30;"F"
"LIE-1819-01";"2ème tournoi - T.T. Top Spin Retinne";"Messieurs D";29;"M"
"LIE-1819-01";"2ème tournoi - T.T. Top Spin Retinne";"Messieurs E";29;"M"
"LIE-1819-01";"2ème tournoi - T.T. Top Spin Retinne";"Dames D";30;"F"
"LIE-1819-01";"2ème tournoi - T.T. Top Spin Retinne";"Messieurs - Préminimes";5;"M"
"LIE-1819-01";"2ème tournoi - T.T. Top Spin Retinne";"Messieurs - Minimes";7;5;"M"
"LIE-1819-01";"2ème tournoi - T.T. Top Spin Retinne";"Messieurs - Cadets";9;7;5;"M"
"LIE-1819-01";"2ème tournoi - T.T. Top Spin Retinne";"Messieurs - Juniors ";11;9;7;5;"M"
"LIE-1819-01";"2ème tournoi - T.T. Top Spin Retinne";"Dames - Préminimes";6;"F"
"LIE-1819-01";"2ème tournoi - T.T. Top Spin Retinne";"Dames - Minimes";8;6;"F"
"LIE-1819-01";"2ème tournoi - T.T. Top Spin Retinne";"Dames - Cadettes";10;8;6;"F"
"LIE-1819-01";"2ème tournoi - T.T. Top Spin Retinne";"Dames - Juniores";12;10;8;6;"F"
"LIE-1819-01";"2ème tournoi - T.T. Top Spin Retinne";"Vétérans";3;"M"
"LIE-1819-01";"2ème tournoi - T.T. Top Spin Retinne";"Dames C Open ";30;"F"
"LIE-1819-01";"2ème tournoi - T.T. Top Spin Retinne";"Messieurs C Open ";29;"M"
"LIE-1819-01";"2ème tournoi - T.T. Top Spin Retinne";"Dames C";30;"F"
"LIE-1819-01";"2ème tournoi - T.T. Top Spin Retinne";"Messieurs C";29;"M"
"LIE-1819-01";"2ème tournoi - T.T. Top Spin Retinne";"17-21 ans";13;"M"
"HAI-1819-13";"Tournoi vétérans - Essor Pays Noir";"NC-E4";3;"M"
"HAI-1819-13";"Tournoi vétérans - Essor Pays Noir";"E2-D6";3;"M"
"HAI-1819-13";"Tournoi vétérans - Essor Pays Noir";"D4-D0";3;"M"
"HAI-1819-13";"Tournoi vétérans - Essor Pays Noir";"C6-C2";3;"M"
"HAI-1819-13";"Tournoi vétérans - Essor Pays Noir";"C0-B";3;"M"
"HAI-1819-13";"Tournoi vétérans - Essor Pays Noir";"Repas - 11€";29;"M"
"LIE-18-19-02";"CP Tour Minerois";"DIVISION 4";29;"M"
"LIE-18-19-02";"CP Tour Minerois";"DIVISION 6";29;"M"
"LIE-18-19-02";"CP Tour Minerois";"DIVISION 3";29;"M"
"LIE-18-19-02";"CP Tour Minerois";"DIVISION 5";29;"M"
"LIE-18-19-02";"CP Tour Minerois";"DIVISION 2";29;"M"
"LIE-18-19-02";"CP Tour Minerois";"DIVISION 1";29;"M"
"LIE-18-19-03";"CP Tour Aywaille";"DIVISION 4";29;"M"
"LIE-18-19-03";"CP Tour Aywaille";"DIVISION 6";29;"M"
"LIE-18-19-03";"CP Tour Aywaille";"DIVISION 3";29;"M"
"LIE-18-19-03";"CP Tour Aywaille";"DIVISION 5";29;"M"
"LIE-18-19-03";"CP Tour Aywaille";"DIVISION 1";29;"M"
"LIE-18-19-03";"CP Tour Aywaille";"DIVISION 2";29;"M"
"HAI-1819-14";"Tournoi Série B - CTT Chatelet";"Messieurs D6-D4";29;"M"
"HAI-1819-14";"Tournoi Série B - CTT Chatelet";"Messieurs - Préminimes";5;"M"
"HAI-1819-14";"Tournoi Série B - CTT Chatelet";"Messieurs - Minimes";7;"M"
"HAI-1819-14";"Tournoi Série B - CTT Chatelet";"Messieurs - Cadets";9;"M"
"HAI-1819-14";"Tournoi Série B - CTT Chatelet";"Messieurs - Juniors";11;"M"
"HAI-1819-14";"Tournoi Série B - CTT Chatelet";"Dames - Préminimes";6;"F"
"HAI-1819-14";"Tournoi Série B - CTT Chatelet";"Dames - Minimes";8;"F"
"HAI-1819-14";"Tournoi Série B - CTT Chatelet";"Dames - Cadettes";10;"F"
"HAI-1819-14";"Tournoi Série B - CTT Chatelet";"Dames - Juniores";12;"F"
"HAI-1819-14";"Tournoi Série B - CTT Chatelet";"Messieurs NC";29;"M"
"HAI-1819-14";"Tournoi Série B - CTT Chatelet";"Dames D";30;"F"
"HAI-1819-14";"Tournoi Série B - CTT Chatelet";"Messieurs D2-D0";29;"M"
"HAI-1819-14";"Tournoi Série B - CTT Chatelet";"Messieurs E ";29;"M"
"HAI-1819-14";"Tournoi Série B - CTT Chatelet";"Dames NC";30;"F"
"HAI-1819-14";"Tournoi Série B - CTT Chatelet";"Messieurs C";29;"M"
"HAI-1819-14";"Tournoi Série B - CTT Chatelet";"Dames C";30;"F"
"HAI-1819-14";"Tournoi Série B - CTT Chatelet";"Messieurs B Spécial ";29;"M"
"HAI-1819-14";"Tournoi Série B - CTT Chatelet";"Vétérans";3;"M"
"HAI-1819-14";"Tournoi Série B - CTT Chatelet";"Dames B Spécial";30;"F"
"HAI-1819-14";"Tournoi Série B - CTT Chatelet";"Messieurs B";29;"M"
"HAI-1819-14";"Tournoi Série B - CTT Chatelet";"Dames B";30;"F"
"HAI-1819-39";"Tournoi vétérans - CTT Châtelet ";"Vétérans & Ainées - B/C0";3;"M"
"HAI-1819-39";"Tournoi vétérans - CTT Châtelet ";"Vétérans & Ainées - C2/C4/C6";3;"M"
"HAI-1819-39";"Tournoi vétérans - CTT Châtelet ";"Vétérans & Ainées - DO/D2/D4";3;"M"
"HAI-1819-39";"Tournoi vétérans - CTT Châtelet ";"Vétérans & Ainées - D6/E0/E2";3;"M"
"HAI-1819-39";"Tournoi vétérans - CTT Châtelet ";"Vétérans & Ainées - E4/E6/NC";3;"M"
"HAI-1819-39";"Tournoi vétérans - CTT Châtelet ";"Repas - Américain préparé - 10€";3;"M"
"HAI-1819-39";"Tournoi vétérans - CTT Châtelet ";"Repas - Américain nature - 10€";3;"M"
"HAI-1819-39";"Tournoi vétérans - CTT Châtelet ";"Repas - Steack boeuf ou cheval sauce champignons - 13€";3;"M"
"HAI-1819-39";"Tournoi vétérans - CTT Châtelet ";"Repas - Steack boeuf ou cheval sauce poivre - 13€";3;"M"
"HAI-1819-03";"2ème tournoi B - T.T. Don Bosco Tournai";"Messieurs NC";29;"M"
"HAI-1819-03";"2ème tournoi B - T.T. Don Bosco Tournai";"Messieurs E0/E2";29;"M"
"HAI-1819-03";"2ème tournoi B - T.T. Don Bosco Tournai";"Dames NC ";30;"F"
"HAI-1819-03";"2ème tournoi B - T.T. Don Bosco Tournai";"Messieurs D0/D2";29;"M"
"HAI-1819-03";"2ème tournoi B - T.T. Don Bosco Tournai";"Dames D";30;"F"
"HAI-1819-03";"2ème tournoi B - T.T. Don Bosco Tournai";"Messieurs E4/E6";29;"M"
"HAI-1819-03";"2ème tournoi B - T.T. Don Bosco Tournai";"Messieurs D4/D6";29;"M"
"HAI-1819-03";"2ème tournoi B - T.T. Don Bosco Tournai";"Messieurs C";29;"M"
"HAI-1819-03";"2ème tournoi B - T.T. Don Bosco Tournai";"Dames C";30;"F"
"HAI-1819-03";"2ème tournoi B - T.T. Don Bosco Tournai";"Messieurs B Spécial";29;"M"
"HAI-1819-03";"2ème tournoi B - T.T. Don Bosco Tournai";"Dames B Spécial";30;"F"
"HAI-1819-03";"2ème tournoi B - T.T. Don Bosco Tournai";"Messieurs B ";29;"M"
"HAI-1819-03";"2ème tournoi B - T.T. Don Bosco Tournai";"Dames B ";29;"M"
"TRBBW07";"Criterium B de Nivelles";"Série D";29;"M"
"TRBBW07";"Criterium B de Nivelles";"Série E";29;"M"
"TRBBW07";"Criterium B de Nivelles";"Série E6-NC";29;"M"
"TRBBW07";"Criterium B de Nivelles";"Série C";29;"M"
"TRBBW07";"Criterium B de Nivelles";"Série B";29;"M"
"TRBBW06";"City Façade Brussels Challenge (Alpa)";"Messieurs D";29;"M"
"TRBBW06";"City Façade Brussels Challenge (Alpa)";"Messieurs NC";29;"M"
"TRBBW06";"City Façade Brussels Challenge (Alpa)";"Messieurs C";29;"M"
"TRBBW06";"City Façade Brussels Challenge (Alpa)";"Messieurs E";29;"M"
"TRBBW06";"City Façade Brussels Challenge (Alpa)";"Messieurs B";29;"M"
"TRBBW08";"Criterium B - Piranha";"Messieurs D";29;"M"
"TRBBW08";"Criterium B - Piranha";"Messieurs NC";29;"M"
"TRBBW08";"Criterium B - Piranha";"Messieurs C";29;"M"
"TRBBW08";"Criterium B - Piranha";"Messieurs E";29;"M"
"TRBBW08";"Criterium B - Piranha";"Messieurs B";29;"M"
"2018-2019-F6";"Tournoi de RULLES";"E6-E4";29;"M"
"2018-2019-F6";"Tournoi de RULLES";"D6-D4";29;"M"
"2018-2019-F6";"Tournoi de RULLES";"NC DAMES";30;"F"
"2018-2019-F6";"Tournoi de RULLES";"NC";29;"M"
"2018-2019-F6";"Tournoi de RULLES";"D6-D4 Dames";30;"F"
"2018-2019-F6";"Tournoi de RULLES";"E2-E0";29;"M"
"2018-2019-F6";"Tournoi de RULLES";"C6-C4 Dames";30;"F"
"2018-2019-F6";"Tournoi de RULLES";"D2-D0";29;"M"
"2018-2019-F6";"Tournoi de RULLES";"D2-D0 Dames";30;"F"
"2018-2019-F6";"Tournoi de RULLES";"C2-C0";29;"M"
"2018-2019-F6";"Tournoi de RULLES";"C2-C0 DAMES";30;"F"
"2018-2019-F6";"Tournoi de RULLES";"B Spéciale";29;"M"
"2018-2019-F6";"Tournoi de RULLES";"Vétérans";3;"M"
"2018-2019-F6";"Tournoi de RULLES";"B Spéciale Dames";30;"F"
"2018-2019-F6";"Tournoi de RULLES";"C6-C4";29;"M"
"2018-2019-F6";"Tournoi de RULLES";"Ainées";4;"F"
"2018-2019-F6";"Tournoi de RULLES";"B";29;"M"
"2018-2019-F6";"Tournoi de RULLES";"B Dames";30;"F"
"NAT-1819-FN-011";"Torhout - A-reeksen";"Heren A";29;"M"
"NAT-1819-FN-011";"Torhout - A-reeksen";"Dames A";30;"F"
"FG/18-19/M05";"Masters La Cipale";"Série E6-E4";29;"M"
"FG/18-19/M05";"Masters La Cipale";"Série D6-D4";29;"M"
"FG/18-19/M05";"Masters La Cipale";"Série NC";29;"M"
"FG/18-19/M05";"Masters La Cipale";"Série E2-E0";29;"M"
"FG/18-19/M05";"Masters La Cipale";"Série D2-D0";29;"M"
"FG/18-19/M05";"Masters La Cipale";"Série C Spécial";29;"M"
"FG/18-19/M05";"Masters La Cipale";"Série C";29;"M"
"HAI-1819-33";"Tournoi Vétérans - ARC Gerpinnes";"Vétérans & Ainées - NC/E6/E4";3;"M"
"HAI-1819-33";"Tournoi Vétérans - ARC Gerpinnes";"Vétérans & Ainées - E2/E0/D6";3;"M"
"HAI-1819-33";"Tournoi Vétérans - ARC Gerpinnes";"Vétérans & Ainées - D4/D2/D0";3;"M"
"HAI-1819-33";"Tournoi Vétérans - ARC Gerpinnes";"Vétérans & Ainées - C6/C4/C2";3;"M"
"HAI-1819-33";"Tournoi Vétérans - ARC Gerpinnes";"Vétérans & Ainées - C0->B0";3;"M"
"HAI-1819-33";"Tournoi Vétérans - ARC Gerpinnes";"Croissant - Petit pain chocolat - Café ou Cacao ";29;"M"
"HAI-1819-33";"Tournoi Vétérans - ARC Gerpinnes";"Repas - Boulettes sauce tomate frites ";29;"M"
"HAI-1819-33";"Tournoi Vétérans - ARC Gerpinnes";"Repas - Américain Frites / Salades ";29;"M"
"2018-2019-F7";"29ème tournoi de Tenneville ";"Messieurs E6-E4";29;"M"
"2018-2019-F7";"29ème tournoi de Tenneville ";"Messieurs D6-D4";29;"M"
"2018-2019-F7";"29ème tournoi de Tenneville ";"Dames NC";30;"F"
"2018-2019-F7";"29ème tournoi de Tenneville ";"Messieurs NC";29;"M"
"2018-2019-F7";"29ème tournoi de Tenneville ";"Dames D6-D4";30;"F"
"2018-2019-F7";"29ème tournoi de Tenneville ";"Messieurs E2-E0";29;"M"
"2018-2019-F7";"29ème tournoi de Tenneville ";"Dames C6-C4";30;"F"
"2018-2019-F7";"29ème tournoi de Tenneville ";"Messieurs D2-D0";29;"M"
"2018-2019-F7";"29ème tournoi de Tenneville ";"Dames D2-D0";30;"F"
"2018-2019-F7";"29ème tournoi de Tenneville ";"Messieurs C2-C0";29;"M"
"2018-2019-F7";"29ème tournoi de Tenneville ";"Dames C2-C0";30;"F"
"2018-2019-F7";"29ème tournoi de Tenneville ";"Vétérans";3;"M"
"2018-2019-F7";"29ème tournoi de Tenneville ";"Messieurs B Spécial";29;"M"
"2018-2019-F7";"29ème tournoi de Tenneville ";"Dames B Spécial";30;"F"
"2018-2019-F7";"29ème tournoi de Tenneville ";"Messieurs C6-C4";29;"M"
"2018-2019-F7";"29ème tournoi de Tenneville ";"Ainées";4;"F"
"2018-2019-F7";"29ème tournoi de Tenneville ";"Messieurs B";29;"M"
"2018-2019-F7";"29ème tournoi de Tenneville ";"Dames B";30;"F"
"HAI-1819-18";"Tournoi Vétérans - Palette Friends Papignies / Flobecq";"E4/E6/NC";3;"M"
"HAI-1819-18";"Tournoi Vétérans - Palette Friends Papignies / Flobecq";"B/C0 ";3;"M"
"HAI-1819-18";"Tournoi Vétérans - Palette Friends Papignies / Flobecq";"D6/E0/E2";3;"M"
"HAI-1819-18";"Tournoi Vétérans - Palette Friends Papignies / Flobecq";"C2/C4/C6";3;"M"
"HAI-1819-18";"Tournoi Vétérans - Palette Friends Papignies / Flobecq";"BBQ";3;"M"
"HAI-1819-18";"Tournoi Vétérans - Palette Friends Papignies / Flobecq";"D0/D2/D4";3;17;19;21;23;25;31;33;35;"M"
"HAI-1819-18";"Tournoi Vétérans - Palette Friends Papignies / Flobecq";"PLAT FROID";3;"M"
"HAI-1819-15";"Tournoi Série B - C.T.T. Phoenix Couillet ";"NC MESSIEURS";29;"M"
"HAI-1819-15";"Tournoi Série B - C.T.T. Phoenix Couillet ";"NC DAMES";30;"F"
"HAI-1819-15";"Tournoi Série B - C.T.T. Phoenix Couillet ";"B MESSIEURS";29;"M"
"HAI-1819-15";"Tournoi Série B - C.T.T. Phoenix Couillet ";"E6/E4";29;"M"
"HAI-1819-15";"Tournoi Série B - C.T.T. Phoenix Couillet ";" D DAMES";30;"F"
"HAI-1819-15";"Tournoi Série B - C.T.T. Phoenix Couillet ";"E2/E0 MESSIEURS";29;"M"
"HAI-1819-15";"Tournoi Série B - C.T.T. Phoenix Couillet ";"D2/D0 MESSIEURS";29;"M"
"HAI-1819-15";"Tournoi Série B - C.T.T. Phoenix Couillet ";"D6/D4 MESSIEURS";29;"M"
"HAI-1819-15";"Tournoi Série B - C.T.T. Phoenix Couillet ";"C DAMES";30;"F"
"HAI-1819-15";"Tournoi Série B - C.T.T. Phoenix Couillet ";"C MESSIEURS";29;"M"
"HAI-1819-15";"Tournoi Série B - C.T.T. Phoenix Couillet ";"VETERANS ";29;"M"
"HAI-1819-15";"Tournoi Série B - C.T.T. Phoenix Couillet ";"B SPECIALE DAMES";30;"F"
"HAI-1819-15";"Tournoi Série B - C.T.T. Phoenix Couillet ";"ainees";30;"F"
"HAI-1819-15";"Tournoi Série B - C.T.T. Phoenix Couillet ";"B SPECIALE MESSIEURS";29;"M"
"HAI-1819-15";"Tournoi Série B - C.T.T. Phoenix Couillet ";"B DAMES";30;"F"
"HAI-1819-22";"Tournoi vétérans & ainées - RCTT Peissant-Vellereille";"E4/NC";3;"M"
"HAI-1819-22";"Tournoi vétérans & ainées - RCTT Peissant-Vellereille";"D6/E2";3;"M"
"HAI-1819-22";"Tournoi vétérans & ainées - RCTT Peissant-Vellereille";"D0/D4";3;"M"
"HAI-1819-22";"Tournoi vétérans & ainées - RCTT Peissant-Vellereille";"C2/C6";3;"M"
"HAI-1819-22";"Tournoi vétérans & ainées - RCTT Peissant-Vellereille";"B/C0";3;"M"
"HAI-1819-22";"Tournoi vétérans & ainées - RCTT Peissant-Vellereille";"Repas-10 €";3;"M"
"OVL-1819-BN-201";"Jeugdliga OVL fase Kwalificatie";"kwalificatie";15;11;9;7;5;"M"
"FG/18-19/M04";"Masters Royal Andenne TT";"Série E6/E4";29;"M"
"FG/18-19/M04";"Masters Royal Andenne TT";"Série D6/D4";29;"M"
"FG/18-19/M04";"Masters Royal Andenne TT";"Série NC ";29;"M"
"FG/18-19/M04";"Masters Royal Andenne TT";"Série E2/E0";29;"M"
"FG/18-19/M04";"Masters Royal Andenne TT";"Série D2/D0";29;"M"
"FG/18-19/M04";"Masters Royal Andenne TT";"Série B Spécial";29;"M"
"FG/18-19/M04";"Masters Royal Andenne TT";"Série C";29;"M"
"FG/18-19/M04";"Masters Royal Andenne TT";"Série B";29;"M"
"VLB-1819-DD-03";"Criterium Jeugd -12 1e fase VLB";"Meisjes Miniemen 1";18;20;22;24;26;32;34;2;16;14;12;10;8;6;"F"
"VLB-1819-DD-03";"Criterium Jeugd -12 1e fase VLB";"Meisjes Preminiemen 1";18;20;22;24;26;32;34;2;16;14;12;10;8;6;"F"
"VLB-1819-DD-03";"Criterium Jeugd -12 1e fase VLB";"Meisjes Preminiemen 2";18;20;22;24;26;32;34;2;16;14;12;10;8;6;"F"
"VLB-1819-DD-03";"Criterium Jeugd -12 1e fase VLB";"Meisjes Benjamins";16;"F"
"VLB-1819-DD-03";"Criterium Jeugd -12 1e fase VLB";"Jongens Miniemen 1";1;17;19;21;23;25;31;33;15;13;11;9;7;5;"M"
"VLB-1819-DD-03";"Criterium Jeugd -12 1e fase VLB";"Jongens Preminiemen 1";1;17;19;21;23;25;31;33;15;13;11;9;7;5;"M"
"VLB-1819-DD-03";"Criterium Jeugd -12 1e fase VLB";"Jongens Preminiemen 2";1;17;19;21;23;25;31;33;15;13;11;9;7;5;"M"
"VLB-1819-DD-03";"Criterium Jeugd -12 1e fase VLB";"Jongens Benjamins";15;"M"
"NAT-1819-FN-012";"Oostende - A-reeksen";"Dames A";18;20;22;24;26;32;34;36;2;16;14;12;10;8;6;"F"
"NAT-1819-FN-012";"Oostende - A-reeksen";"Heren A-B2 (Qualifier Ostend Masters)";1;17;19;21;23;25;31;33;35;15;13;11;9;7;5;"M"
"NAT-1819-FN-013";"Wenduine - A-reeksen";"Dames A";2;6;8;10;12;14;16;18;20;22;24;26;32;34;36;;"F"
"NAT-1819-FN-013";"Wenduine - A-reeksen";"Heren A";1;5;7;9;11;13;15;17;19;21;23;25;31;33;35;;"M"
"LIE-18-19-04";"Critérium Poussins-Préminimes phase 1";"Critérium Poussins-Préminimes phase 1";5;"M"
"LIE-18-19-05";"Critérium Jeunes";"Critérium Jeunes";9;"M"
"LIE-18-19-05";"Critérium Jeunes";"Critérium Jeunes";7;"M"
"LIE-18-19-05";"Critérium Jeunes";"Critérium Jeunes";11;"M"
"LIE-18-19-05";"Critérium Jeunes";"Critérium Jeunes";13;"M"
"CRBBW01";"Criterium provincial Seniors - Qualif BBW";"Dames NC";30;"F"
"CRBBW01";"Criterium provincial Seniors - Qualif BBW";"Dames D";30;"F"
"CRBBW01";"Criterium provincial Seniors - Qualif BBW";"Dames C";30;"F"
"CRBBW01";"Criterium provincial Seniors - Qualif BBW";"Dames B";30;"F"
"CRBBW01";"Criterium provincial Seniors - Qualif BBW";"Messieurs NC";29;"M"
"CRBBW01";"Criterium provincial Seniors - Qualif BBW";"Messieurs E";29;"M"
"CRBBW01";"Criterium provincial Seniors - Qualif BBW";"Messieurs D";29;"M"
"CRBBW01";"Criterium provincial Seniors - Qualif BBW";"Messieurs C";29;"M"
"CRBBW01";"Criterium provincial Seniors - Qualif BBW";"Messieurs B";29;"M"
